{"success":true,"data":{"tours":[{"id":"12","name":"Đà Lạt - Nha Trang 4N3Đ","slug":"da-lat-nha-trang-4n3d","short_description":"Tour Đà Lạt - Nha Trang 4 ngày 3 đêm","description":"hihi","service_type":"TOUR","status":"ACTIVE","created_at":"2025-10-07T16:44:46.472Z","duration_days":4,"country":"Việt Nam","min_participants":1,"max_participants":25,"itinerary":[{"day":1,"title":"hú","description":"hí"},{"day":2,"title":"hẹ ","description":"nắc "},{"day":3,"title":"Ngày 3","description":""},{"day":4,"title":"Ngày 4","description":""}],"min_price":"800000.00","max_price":"2500000.00","image_count":"1","availability_count":"6"},{"id":"11","name":"Nha Trang 3N2Đ","slug":"nha-trang-3n2d","short_description":"Tour Nha Trang 3 ngày 2 đêm","description":"Khám phá vẻ đẹp của thành phố biển Nha Trang trong chuyến đi ngắn ngày, kết hợp tham quan, nghỉ dưỡng và ẩm thực.","service_type":"TOUR","status":"ACTIVE","created_at":"2025-10-07T16:42:45.735Z","duration_days":3,"country":"Việt Nam","min_participants":1,"max_participants":25,"itinerary":["HAN","CXR","HAN"],"min_price":"800000.00","max_price":"2500000.00","image_count":"0","availability_count":"3"},{"id":"10","name":"Nha Trang 4N3Đ","slug":"nha-trang-4n3d","short_description":"Tour Nha Trang 4 ngày 3 đêm","description":"Tận hưởng kỳ nghỉ trọn vẹn tại thành phố biển Nha Trang với bãi cát trắng, biển xanh và ẩm thực phong phú.","service_type":"TOUR","status":"ACTIVE","created_at":"2025-10-07T16:42:45.735Z","duration_days":4,"country":"Việt Nam","min_participants":1,"max_participants":25,"itinerary":["HAN","CXR","HAN"],"min_price":"800000.00","max_price":"2500000.00","image_count":"0","availability_count":"2"},{"id":"9","name":"Nha Trang - Đà Lạt 5N4Đ","slug":"nha-trang-da-lat-5n4d","short_description":"Tour Nha Trang - Đà Lạt 5 ngày 4 đêm","description":"Trải nghiệm hành trình kết hợp giữa biển xanh Nha Trang và cao nguyên mát lành Đà Lạt. Thưởng ngoạn phong cảnh thiên nhiên tuyệt đẹp và văn hóa độc đáo miền Trung - Tây Nguyên.","service_type":"TOUR","status":"ACTIVE","created_at":"2025-10-07T16:40:13.851Z","duration_days":5,"country":"Việt Nam","min_participants":1,"max_participants":25,"itinerary":["HAN","CXR","DLI","HAN"],"min_price":"800000.00","max_price":"2500000.00","image_count":"0","availability_count":"6"},{"id":"8","name":"Hà Nội - Đà Nẵng 3N2Đ","slug":"ha-noi-da-nang-3n2d","short_description":"Tour Hà Nội - Đà Nẵng 3 ngày 2 đêm","description":"Trải nghiệm ngắn ngày tại thành phố Đà Nẵng năng động và các điểm du lịch nổi tiếng.","service_type":"TOUR","status":"ACTIVE","created_at":"2025-10-07T16:23:05.968Z","duration_days":3,"country":"Việt Nam","min_participants":1,"max_participants":25,"itinerary":["HAN","DAD","HAN"],"min_price":"800000.00","max_price":"2500000.00","image_count":"0","availability_count":"7"}],"pagination":{"currentPage":1,"totalPages":3,"totalItems":11,"itemsPerPage":5,"hasNextPage":true,"hasPrevPage":false}}}
